[
   {
     "id": 1,
     "nombre": "Juan",
     "apellido": "Perez"
   },
   {
     "id": 2,
     "nombre": "Laura",
     "apellido": "Fernandez"
   },
   {
     "id": 3,
     "nombre": "Maria",
     "apellido": "Lopez"
   },
   {
     "id": 4,
     "nombre": "Daniel",
     "apellido": "Moreno"
   },
   {
     "id": 5,
     "nombre": "Jorge",
     "apellido": "Campos"
   }
]
  
